{
	"id": 1,
	"name": "Bière brune",
	"description": "La bière brune est une bière de couleur brune, du brun acajou au noir ébène, obtenue grâce à l'utilisation de malt plus ou moins torréfié.",
	"price": 9.00,
	"size": "...",
	"picture": "http://media.uaredesign.com/catalog/product/cache/1/image/9df78eab33525d08d6e5fb8d27136e95/v/e/verre-biere-brune-eva-trio-1.jpg"
}