[
	{
		"id": 0,
		"name": "Bière blonde",
		"description": "Une bière blonde est une bière désignée ainsi de par sa couleur.",
		"price": 10.00,
		"size": "...",
		"picture": "..."
	},
	{
		"id": 1,
		"name": "Bière brune",
		"description": "La bière brune est une bière de couleur brune, du brun acajou au noir ébène, obtenue grâce à l'utilisation de malt plus ou moins torréfié.",
		"price": 9.00,
		"size": "...",
		"picture": "..."
	}
]