[
	{
		"id": 2,
		"name": "Bloody Mary",
		"description": "Certainement le cocktail le plus célèbre à base de jus de tomate.",
		"price": 7.00,
		"size": "...",
		"picture": "..."
	},
	{
		"id": 3,
		"name": "Margarita",
		"description": "Une part acide, une part sucrée, une part amère.",
		"price": 9.00,
		"size": "...",
		"picture": "..."
	},
	{
		"id": 4,
		"name": "Mojito",
		"description": "Très parfumé, légèrement sucré et avec une pointe d'acidité.",
		"price": 8.00,
		"size": "...",
		"picture": "..."
	}
]